<?xml version="1.0" encoding="UTF-8" standalone="no"?>
<!-- Created with Inkscape (http://www.inkscape.org/) -->

<svg
   xmlns:dc="http://purl.org/dc/elements/1.1/"
   xmlns:cc="http://creativecommons.org/ns#"
   xmlns:rdf="http://www.w3.org/1999/02/22-rdf-syntax-ns#"
   xmlns:svg="http://www.w3.org/2000/svg"
   xmlns="http://www.w3.org/2000/svg"
   xmlns:xlink="http://www.w3.org/1999/xlink"
   xmlns:sodipodi="http://sodipodi.sourceforge.net/DTD/sodipodi-0.dtd"
   xmlns:inkscape="http://www.inkscape.org/namespaces/inkscape"
   inkscape:export-ydpi="9.8199997"
   inkscape:export-xdpi="9.8199997"
   inkscape:export-filename="/home/sp2m_l_sim/caliste/developpement/v_sim-dev/pixmaps/v_sim.24.png"
   sodipodi:docname="v_sim.svg"
   height="220"
   width="220"
   inkscape:version="0.47 r22583"
   sodipodi:version="0.32"
   id="svg908"
   version="1.1">
  <defs
     id="defs910">
    <inkscape:perspective
       sodipodi:type="inkscape:persp3d"
       inkscape:vp_x="0 : 526.18109 : 1"
       inkscape:vp_y="0 : 1000 : 0"
       inkscape:vp_z="744.09448 : 526.18109 : 1"
       inkscape:persp3d-origin="372.04724 : 350.78739 : 1"
       id="perspective95" />
    <linearGradient
       id="linearGradient4767">
      <stop
         id="stop4768"
         offset="0.0000000"
         style="stop-color:#806436;stop-opacity:1.0000000;" />
      <stop
         id="stop4769"
         offset="1.0000000"
         style="stop-color:#c48e33;stop-opacity:0.0000000;" />
    </linearGradient>
    <linearGradient
       id="linearGradient4761">
      <stop
         id="stop4762"
         offset="0.0000000"
         style="stop-color:#c48e33;stop-opacity:1.0000000;" />
      <stop
         id="stop4763"
         offset="1.0000000"
         style="stop-color:#c48e33;stop-opacity:0.0000000;" />
    </linearGradient>
    <linearGradient
       id="linearGradient3792">
      <stop
         id="stop3793"
         offset="0.0000000"
         style="stop-color:#ffffff;stop-opacity:1.0000000;" />
      <stop
         id="stop3794"
         offset="1.0000000"
         style="stop-color:#565656;stop-opacity:0.40784314;" />
    </linearGradient>
    <linearGradient
       id="linearGradient3028">
      <stop
         id="stop3029"
         offset="0.0000000"
         style="stop-color:#d19d83;stop-opacity:1.0000000;" />
      <stop
         id="stop3030"
         offset="1.0000000"
         style="stop-color:#aa2934;stop-opacity:0.0000000;" />
    </linearGradient>
    <linearGradient
       id="linearGradient3020">
      <stop
         id="stop3021"
         offset="0.0000000"
         style="stop-color:#ff7878;stop-opacity:1.0000000;" />
      <stop
         id="stop3023"
         offset="0.50000000"
         style="stop-color:#631315;stop-opacity:0.85882354;" />
      <stop
         id="stop3022"
         offset="1.0000000"
         style="stop-color:#000000;stop-opacity:1.0000000;" />
    </linearGradient>
    <linearGradient
       id="linearGradient2999">
      <stop
         id="stop3000"
         offset="0.0000000"
         style="stop-color:#ff7878;stop-opacity:1.0000000;" />
      <stop
         id="stop3001"
         offset="1.0000000"
         style="stop-color:#ffc5ca;stop-opacity:0.078431375;" />
    </linearGradient>
    <linearGradient
       id="linearGradient2994">
      <stop
         id="stop2995"
         offset="0.0000000"
         style="stop-color:#d19d83;stop-opacity:1.0000000;" />
      <stop
         id="stop2996"
         offset="1.0000000"
         style="stop-color:#aa2934;stop-opacity:1.0000000;" />
    </linearGradient>
    <marker
       inkscape:stockid="SemiCircleIn"
       orient="auto"
       refY="0"
       refX="0"
       id="SemiCircleIn"
       style="overflow:visible">
      <path
         sodipodi:nodetypes="cccc"
         id="path2958"
         d="m -0.37450702,-0.04569258 c 0,2.75999998 2.24000002,4.99999998 5.00000002,4.99999998 l 0,-10 c -2.76,0 -5.00000002,2.24 -5.00000002,5.00000002 z"
         style="fill-rule:evenodd;stroke:#000000;stroke-width:1pt;marker-start:none;marker-end:none"
         transform="scale(0.6,0.6)" />
    </marker>
    <linearGradient
       id="linearGradient1588">
      <stop
         id="stop1589"
         offset="0.0000000"
         style="stop-color:#f69c72;stop-opacity:1.0000000;" />
      <stop
         id="stop1590"
         offset="1.0000000"
         style="stop-color:#aa2934;stop-opacity:1.0000000;" />
    </linearGradient>
    <linearGradient
       id="linearGradient3015"
       xlink:href="#linearGradient2999"
       inkscape:collect="always"
       gradientTransform="matrix(0.94134822,0,0,1.0623062,-222.89837,-221.71631)"
       x1="300.9314"
       y1="246.36848"
       x2="368.62024"
       y2="246.36848"
       gradientUnits="userSpaceOnUse" />
    <radialGradient
       fy="164.56133"
       fx="804.72101"
       r="35.842899"
       cy="164.56133"
       cx="804.72101"
       id="radialGradient3019"
       xlink:href="#linearGradient3020"
       inkscape:collect="always"
       gradientTransform="matrix(0.49157175,0,0,2.034291,-222.89837,-221.71631)"
       gradientUnits="userSpaceOnUse" />
    <linearGradient
       y2="355.10223"
       x2="290.38211"
       y1="250.86357"
       x1="441.76083"
       id="linearGradient3791"
       xlink:href="#linearGradient3792"
       inkscape:collect="always"
       gradientTransform="matrix(0.94364514,0,0,1.0597204,-222.89837,-221.71631)"
       gradientUnits="userSpaceOnUse" />
    <linearGradient
       inkscape:collect="always"
       xlink:href="#linearGradient2999"
       id="linearGradient3431"
       gradientTransform="matrix(2.1917014,0,0,1.8047573,-395.79937,-970.80818)"
       x1="186.96803"
       y1="551.69641"
       x2="253.96786"
       y2="551.69641"
       gradientUnits="userSpaceOnUse" />
    <radialGradient
       inkscape:collect="always"
       xlink:href="#linearGradient3020"
       id="radialGradient3433"
       cx="249.70084"
       cy="544.57581"
       fx="249.70084"
       fy="544.57581"
       r="68.295326"
       gradientUnits="userSpaceOnUse"
       gradientTransform="matrix(1.985212,0,0,1.992477,-395.79937,-970.80818)" />
  </defs>
  <sodipodi:namedview
     inkscape:current-layer="svg908"
     inkscape:guide-points="true"
     inkscape:grid-bbox="false"
     showgrid="false"
     inkscape:guide-bbox="true"
     showguides="true"
     inkscape:window-y="0"
     inkscape:window-x="0"
     inkscape:window-height="946"
     inkscape:window-width="1272"
     inkscape:cy="98.704807"
     inkscape:cx="129.27691"
     inkscape:zoom="1.6523409"
     inkscape:pageshadow="2"
     inkscape:pageopacity="0.0"
     borderopacity="1.0"
     bordercolor="#666666"
     pagecolor="#ffffff"
     id="base"
     units="px"
     inkscape:window-maximized="0">
    <sodipodi:guide
       id="guide2966"
       position="-222.89837,-79.621033"
       orientation="horizontal" />
    <sodipodi:guide
       id="guide2967"
       position="-222.89837,-43.414533"
       orientation="horizontal" />
    <sodipodi:guide
       id="guide2971"
       position="157.64064,-618.64589"
       orientation="vertical" />
    <sodipodi:guide
       id="guide2983"
       position="116.254,-618.64589"
       orientation="vertical" />
    <sodipodi:guide
       id="guide2986"
       position="-222.89837,-34.207223"
       orientation="horizontal" />
    <sodipodi:guide
       id="guide4758"
       position="-222.89837,-122.77261"
       orientation="horizontal" />
    <sodipodi:guide
       id="guide1029"
       position="-222.89837,-9.8276126"
       orientation="horizontal" />
    <sodipodi:guide
       id="guide1030"
       position="-222.89837,-19.238343"
       orientation="horizontal" />
    <sodipodi:guide
       id="guide2265"
       position="109.38255,-618.64589"
       orientation="vertical" />
    <sodipodi:guide
       id="guide2266"
       position="167.93164,-618.64589"
       orientation="vertical" />
    <sodipodi:guide
       id="guide3356"
       position="-222.89837,-114.1423"
       orientation="horizontal" />
    <sodipodi:guide
       id="guide3357"
       position="-222.89837,33.312807"
       orientation="horizontal" />
    <sodipodi:guide
       id="guide3358"
       position="-222.89837,-50.277963"
       orientation="horizontal" />
    <sodipodi:guide
       id="guide3359"
       position="32.805546,-618.64589"
       orientation="vertical" />
    <sodipodi:guide
       id="guide3360"
       position="125.02664,-618.64589"
       orientation="vertical" />
    <sodipodi:guide
       id="guide3362"
       position="79.162676,-618.64589"
       orientation="vertical" />
  </sodipodi:namedview>
  <metadata
     id="metadata911">
    <rdf:RDF>
      <cc:Work
         rdf:about="">
        <dc:format>image/svg+xml</dc:format>
        <dc:type
           rdf:resource="http://purl.org/dc/dcmitype/StillImage" />
        <dc:title></dc:title>
      </cc:Work>
    </rdf:RDF>
  </metadata>
  <path
     transform="matrix(1.985212,0,0,1.992477,-395.79937,-970.80818)"
     d="m 298.125,543.92468 a 49.0625,49.0625 0 1 1 -98.125,0 49.0625,49.0625 0 1 1 98.125,0 z"
     sodipodi:ry="49.0625"
     sodipodi:rx="49.0625"
     sodipodi:cy="543.92468"
     sodipodi:cx="249.0625"
     id="path3043"
     style="fill:#930f0f;fill-opacity:1;fill-rule:evenodd;stroke:#000000;stroke-width:1pt;stroke-linecap:butt;stroke-linejoin:miter;stroke-opacity:1"
     sodipodi:type="arc" />
  <path
     id="path3044"
     d="m 91.153853,24.8699 c -42.605846,0 -77.175117,34.758043 -77.175117,77.51981 0,16.09872 4.890967,31.00562 13.276106,43.39864 C 45.734108,140.78562 66.749165,130.40464 93.759444,107.1841 121.80664,83.072163 142.71602,73.477813 160.82239,69.576103 148.49087,43.245 122.04488,24.86992 91.153853,24.8699 z"
     style="fill:url(#linearGradient3431);fill-opacity:0.45210727;fill-rule:evenodd;stroke:none" />
  <path
     id="path3045"
     d="m 99.90971,22.65492 c -7.005198,0 -13.732764,0.98809 -20.286385,2.4906 5.021752,-0.94356 10.1542,-1.61889 15.447431,-1.61889 46.250254,0 83.813164,37.700373 83.813164,84.11989 -2e-5,46.41956 -37.56291,84.05763 -83.813164,84.05763 -46.250278,0 -83.751132,-37.63811 -83.751132,-84.05763 0,-11.60487 2.334312,-22.691687 6.576015,-32.751337 -5.725371,11.97345 -9.2436433,25.190757 -9.2436433,39.351427 0,50.55111 40.8909203,91.59173 91.2577143,91.59167 50.36679,0 91.25773,-41.04056 91.25771,-91.59167 0,-50.551127 -40.89092,-91.59169 -91.25771,-91.59169 z M 17.895639,74.895183 c 1.789351,-4.24366 4.08374,-8.16282 6.513977,-12.01713 -2.549409,3.76309 -4.536706,7.88206 -6.513977,12.01713 z"
     style="fill:url(#radialGradient3433);fill-opacity:0.75;fill-rule:evenodd;stroke:none" />
  <path
     id="path924"
     d="m 99.124176,14.49846 -20.39731,2.29469 -17.33772,5.3543 -16.57281,8.41389 -14.53309,11.47349 -12.74832,16.827783 -6.88409,13.00328 -6.6291203,25.496637"
     style="fill:none;stroke:#000000;stroke-width:1pt;stroke-linecap:butt;stroke-linejoin:miter;stroke-opacity:1" />
  <path
     sodipodi:nodetypes="cccccccccccccccccccc"
     id="path3047"
     d="m 99.945376,14.00243 -12.34375,7.25 -9.78125,8.25 -9.75,12.375 -9.125,16.062503 -6.71875,17.15625 30.375,3.03125 -1.9375,19.781247 -1.96875,21.03126 41.031254,0.21875 0.4375,20 -0.4375,18.875 35.8125,-4.78125 -3.25,16.9375 24.09375,-7.15625 -7.15625,13.875 8.875,-6.71875 3.75,-4.40625 c 9.72051,-15.32251 15.4375,-33.47052 15.4375,-52.96875 0,-54.174867 -43.51825,-98.16576 -97.343754,-98.81251 z"
     style="fill:url(#linearGradient3791);fill-opacity:1;fill-rule:evenodd;stroke:none" />
  <path
     id="path942"
     d="m 179.43859,168.75313 -11.21852,12.74832 -10.70859,8.66886"
     style="fill:none;stroke:#000000;stroke-width:1pt;stroke-linecap:round;stroke-linejoin:miter;stroke-opacity:1" />
  <g
     style="stroke:#000000;stroke-width:0.82499999;stroke-miterlimit:4;stroke-opacity:0.43678164;stroke-dasharray:none"
     id="g3889"
     transform="translate(-222.89837,-221.71631)">
    <path
       id="path947"
       d="m 349.04898,372.11186 35.95027,-5.09933 0.76489,-18.35758 -35.44032,4.5894 -1.27484,18.86751 z"
       style="fill:none;stroke:#000000;stroke-width:0.82499999;stroke-linecap:butt;stroke-linejoin:miter;stroke-miterlimit:4;stroke-opacity:0.43678164;stroke-dasharray:none" />
    <path
       sodipodi:nodetypes="ccccc"
       id="path948"
       d="m 383.72441,383.84031 19.37745,-6.11919 4.33443,-14.27812 -21.41718,5.60927 -2.2947,14.78804 z"
       style="fill:none;stroke:#000000;stroke-width:0.82499999;stroke-linecap:butt;stroke-linejoin:miter;stroke-miterlimit:4;stroke-opacity:0.43678164;stroke-dasharray:none" />
    <path
       id="path949"
       d="m 309.27423,333.61194 38.49992,-0.50994 -0.7649,-18.86751 -35.69529,0.25497 -2.03973,19.12248 z"
       style="fill:none;stroke:#000000;stroke-width:0.82499999;stroke-linecap:butt;stroke-linejoin:miter;stroke-miterlimit:4;stroke-opacity:0.43678164;stroke-dasharray:none" />
    <path
       id="path957"
       d="m 283.26766,291.79745 27.79133,2.2947 2.54967,-13.51322 -24.73174,-2.03973 -5.60926,13.25825 z"
       style="fill:none;stroke:#000000;stroke-width:0.82499999;stroke-linecap:butt;stroke-linejoin:miter;stroke-miterlimit:4;stroke-opacity:0.43678164;stroke-dasharray:none" />
    <path
       id="path958"
       d="m 294.74115,270.12531 21.16221,1.78476 3.05959,-8.92382 -18.10261,-1.27484 -6.11919,8.4139 z"
       style="fill:none;stroke:#000000;stroke-width:0.82499999;stroke-linecap:butt;stroke-linejoin:miter;stroke-miterlimit:4;stroke-opacity:0.43678164;stroke-dasharray:none" />
    <path
       id="path959"
       d="m 399.53233,388.93964 4.33443,-4.07946 3.05959,-9.43376 -4.84436,4.07947 -2.54966,9.43375 z"
       style="fill:none;stroke:#000000;stroke-width:0.82499999;stroke-linecap:butt;stroke-linejoin:miter;stroke-miterlimit:4;stroke-opacity:0.43678164;stroke-dasharray:none" />
    <path
       id="path961"
       d="m 391.78135,301.2312 -4.84436,-13.00328 16.82778,-3.0596 7.64899,11.72845 -19.63241,4.33443 z"
       style="fill:none;stroke:#000000;stroke-width:0.82499999;stroke-linecap:butt;stroke-linejoin:miter;stroke-miterlimit:4;stroke-opacity:0.43678164;stroke-dasharray:none" />
    <path
       sodipodi:nodetypes="ccccc"
       id="path960"
       d="m 358.22778,338.91656 -1.5298,-19.88737 30.08603,-2.03973 2.80463,17.08275 -31.36086,4.84435 z"
       style="fill:none;stroke:#000000;stroke-width:0.82499999;stroke-linecap:butt;stroke-linejoin:miter;stroke-miterlimit:4;stroke-opacity:0.43678164;stroke-dasharray:none" />
    <path
       id="path962"
       d="m 317.17819,305.8206 2.03973,-14.78805 26.77147,0 1.01987,14.27812 -29.83107,0.50993 z"
       style="fill:none;stroke:#000000;stroke-width:0.82499999;stroke-linecap:butt;stroke-linejoin:miter;stroke-miterlimit:4;stroke-opacity:0.43678164;stroke-dasharray:none" />
    <g
       style="stroke:#000000;stroke-width:0.82499999;stroke-miterlimit:4;stroke-opacity:0.43678164;stroke-dasharray:none"
       id="g3835">
      <path
         id="path956"
         d="m 302.39014,238.50947 0.76489,1.78477 2.2947,1.27483 5.09933,1.27483 0,0"
         style="fill:none;stroke:#000000;stroke-width:0.82499999;stroke-linecap:butt;stroke-linejoin:miter;stroke-miterlimit:4;stroke-opacity:0.43678164;stroke-dasharray:none" />
      <g
         style="stroke:#000000;stroke-width:0.82499999;stroke-miterlimit:4;stroke-opacity:0.43678164;stroke-dasharray:none"
         id="g3814">
        <path
           sodipodi:nodetypes="cccccccccccccccccc"
           id="path927"
           d="m 322.02255,236.21478 -10.96356,6.62912 -10.19865,8.66886 -9.68873,12.49335 -8.92382,15.29799 -7.13906,18.10261 -5.86422,19.63241 -3.31457,19.88738 -0.7649,20.14234 1.27484,18.35758 3.56952,17.08275 6.1192,14.27812 6.88409,10.96355 8.41389,7.90396 9.94369,4.5894 14.78805,1.78476 0,0 0,0"
           style="fill:none;stroke:#000000;stroke-width:0.82499999;stroke-linecap:butt;stroke-linejoin:miter;stroke-miterlimit:4;stroke-opacity:0.43678164;stroke-dasharray:none" />
        <g
           style="fill:none;stroke:#000000;stroke-width:0.82499999;stroke-miterlimit:4;stroke-opacity:0.43678164;stroke-dasharray:none"
           id="g3795">
          <path
             id="path925"
             d="m 321.76758,236.46974 -18.35758,3.56953 -18.10261,6.37416 -17.33772,9.68872 -14.27811,12.49336 -12.49336,16.06288 -8.66885,17.08275 -5.86423,17.33771 -1.5298,20.39731 2.03973,18.86752 6.37416,17.59268 9.43376,15.29798 13.51322,14.27812 8.66885,6.62912 0,0 0.25497,0.50994"
             style="fill:none;stroke:#000000;stroke-width:0.82499999;stroke-linecap:butt;stroke-linejoin:miter;stroke-miterlimit:4;stroke-opacity:0.43678164;stroke-dasharray:none" />
          <path
             id="path926"
             d="m 321.51261,236.72471 -16.06288,4.84436 -15.29798,7.64899 -14.27812,11.21852 -12.74832,14.53309 -10.45362,16.06288 -8.66886,19.12248 -4.33443,19.12248 -1.01986,19.63241 1.5298,18.35758 5.35429,18.10261 8.41389,15.04302 10.96356,12.49335 13.25825,8.66886 14.53308,5.35429 12.49336,3.56953 8.15892,1.27484"
             style="fill:none;stroke:#000000;stroke-width:0.82499999;stroke-linecap:butt;stroke-linejoin:miter;stroke-miterlimit:4;stroke-opacity:0.43678164;stroke-dasharray:none" />
          <path
             sodipodi:nodetypes="ccccc"
             id="path934"
             d="m 303.91993,320.09872 -34.42046,-3.31457 -25.49664,-6.37416 -11.21852,-8.15892 0.50994,-8.15892"
             style="fill:none;stroke:#000000;stroke-width:0.82499999;stroke-linecap:butt;stroke-linejoin:miter;stroke-miterlimit:4;stroke-opacity:0.43678164;stroke-dasharray:none" />
          <path
             id="path937"
             d="m 343.18476,360.89334 -39.77476,0.50993 -38.49992,-4.33443 -26.26154,-7.39402 -13.00329,-9.94369"
             style="fill:none;stroke:#000000;stroke-width:0.82499999;stroke-linecap:butt;stroke-linejoin:miter;stroke-miterlimit:4;stroke-opacity:0.43678164;stroke-dasharray:none" />
          <path
             sodipodi:nodetypes="cccccccc"
             id="path943"
             d="m 401.82703,390.97937 -9.43376,7.90396 -22.94697,7.64899 -29.83107,4.33443 -33.4006,0 -29.83107,-3.56953 -22.18207,-6.62912 -10.70859,-8.66886"
             style="fill:none;stroke:#000000;stroke-width:0.82499999;stroke-linecap:round;stroke-linejoin:miter;stroke-miterlimit:4;stroke-opacity:0.43678164;stroke-dasharray:none" />
          <path
             id="path944"
             d="m 380.40985,411.63165 -18.10261,6.62913 -25.75161,3.05959 -27.79133,0 -25.49664,-3.31456 -18.10262,-5.35429"
             style="fill:none;stroke:#000000;stroke-width:0.82499999;stroke-linecap:butt;stroke-linejoin:miter;stroke-miterlimit:4;stroke-opacity:0.43678164;stroke-dasharray:none" />
          <path
             id="path945"
             d="m 367.9165,421.06541 -14.27812,4.58939 -19.63241,2.54967 -22.18208,0 -20.65228,-2.54967"
             style="fill:none;stroke:#000000;stroke-width:0.82499999;stroke-linecap:butt;stroke-linejoin:miter;stroke-miterlimit:4;stroke-opacity:0.43678164;stroke-dasharray:none" />
          <path
             id="path953"
             d="m 252.92666,263.75115 -0.50994,5.60926 9.94369,6.37416 19.37745,4.07946"
             style="fill:none;stroke:#000000;stroke-width:0.82499999;stroke-linecap:butt;stroke-linejoin:miter;stroke-miterlimit:4;stroke-opacity:0.43678164;stroke-dasharray:none" />
          <path
             id="path954"
             d="m 267.71471,252.27766 -0.50994,4.07946 7.39403,4.33443 16.57281,3.31456"
             style="fill:none;stroke:#000000;stroke-width:0.82499999;stroke-linecap:butt;stroke-linejoin:miter;stroke-miterlimit:4;stroke-opacity:0.43678164;stroke-dasharray:none" />
          <path
             id="path955"
             d="m 284.28752,243.86377 0.50994,3.31456 5.09932,2.03973 10.96356,2.03973"
             style="fill:none;stroke:#000000;stroke-width:0.82499999;stroke-linecap:butt;stroke-linejoin:miter;stroke-miterlimit:4;stroke-opacity:0.43678164;stroke-dasharray:none" />
          <path
             id="path933"
             d="m 305.7047,299.95637 -30.341,-2.80463 -23.20194,-5.09933 -10.45362,-6.62912 -1.5298,-4.07946 0,0 0.25496,0.25496"
             style="fill:none;stroke:#000000;stroke-width:0.82499999;stroke-linecap:butt;stroke-linejoin:miter;stroke-miterlimit:4;stroke-opacity:0.43678164;stroke-dasharray:none" />
          <path
             id="path952"
             d="m 305.7047,299.95637 -2.03973,20.14235 -2.03973,20.90724 -0.25497,20.14235 0.7649,18.61254 2.80463,16.82778 2.54966,14.02315 3.0596,10.19866 3.0596,6.88409 2.80463,3.8245 2.03973,1.27483 6.37416,0.50993"
             style="fill:none;stroke:#000000;stroke-width:0.82499999;stroke-linecap:butt;stroke-linejoin:miter;stroke-miterlimit:4;stroke-opacity:0.43678164;stroke-dasharray:none" />
          <path
             sodipodi:nodetypes="ccccc"
             id="path950"
             d="m 342.8687,341.05111 -40.47856,-0.0451 -36.20523,-4.07946 -26.26154,-7.13906 -13.25825,-10.70859"
             style="fill:none;stroke:#000000;stroke-width:0.82499999;stroke-linecap:round;stroke-linejoin:miter;stroke-miterlimit:4;stroke-opacity:0.43678164;stroke-dasharray:none" />
          <path
             sodipodi:nodetypes="ccccccccc"
             id="path936"
             d="m 342.88464,341.1122 0.30012,19.78114 -0.25497,19.12248 -1.27483,17.08275 -2.03973,13.51321 -3.0596,10.70859 -2.54966,6.8841 -3.31457,3.56953 -13.51321,0.25496"
             style="fill:none;stroke:#000000;stroke-width:0.82499999;stroke-linecap:round;stroke-linejoin:miter;stroke-miterlimit:4;stroke-opacity:0.43678164;stroke-dasharray:none" />
          <path
             sodipodi:nodetypes="cccccc"
             id="path939"
             d="m 378.37012,375.17146 -35.18536,5.09932 -41.04959,0 -35.44033,-4.58939 -26.5165,-7.64899 -13.00329,-9.94369"
             style="fill:none;stroke:#000000;stroke-width:0.82499999;stroke-linecap:round;stroke-linejoin:miter;stroke-miterlimit:4;stroke-opacity:0.43678164;stroke-dasharray:none" />
          <path
             sodipodi:nodetypes="ccccccc"
             id="path938"
             d="m 378.37012,375.23255 -3.0596,16.76669 -5.86422,14.02315 -7.39403,12.23839 -9.68872,8.15892 -7.90396,3.31456 -13.51322,2.2947"
             style="fill:none;stroke:#000000;stroke-width:0.82499999;stroke-linecap:round;stroke-linejoin:miter;stroke-miterlimit:4;stroke-opacity:0.43678164;stroke-dasharray:none" />
          <path
             sodipodi:nodetypes="ccccccc"
             id="path941"
             d="m 399.7873,384.60521 -24.73174,7.39403 -33.14563,4.58939 -36.85506,0.74007 -35.30043,-4.56456 -24.22181,-7.39403 -11.98342,-9.94369"
             style="fill:none;stroke:#000000;stroke-width:0.82499999;stroke-linecap:round;stroke-linejoin:miter;stroke-miterlimit:4;stroke-opacity:0.43678164;stroke-dasharray:none" />
          <path
             id="path940"
             d="m 399.7873,384.86018 -7.90396,14.27812 -11.72846,12.74832 -11.72845,8.92382 -12.23839,4.5894 -10.70858,4.07946"
             style="fill:none;stroke:#000000;stroke-width:0.82499999;stroke-linecap:round;stroke-linejoin:miter;stroke-miterlimit:4;stroke-opacity:0.43678164;stroke-dasharray:none" />
        </g>
      </g>
    </g>
  </g>
  <path
     sodipodi:nodetypes="ccc"
     id="path3364"
     d="M 96.731526,15.69749 154.67794,120.18596 212.00789,15.69749"
     style="fill:none;stroke:#000000;stroke-width:15;stroke-linecap:round;stroke-linejoin:round;stroke-miterlimit:4;stroke-opacity:1;stroke-dasharray:none" />
  <path
     id="path3922"
     d="m 77.976626,40.00243 -6.125,8.40625 21.15625,1.78125 3.0625,-8.90625 -18.09375,-1.28125 z m -12,16.812503 -5.59375,13.28125 27.78125,2.28125 2.53125,-13.5 -24.71875,-2.0625 z m 115.125004,6.125 -17.0625,3.5625 4.84375,13 19.65625,-4.15625 c -0.28264,-0.67931 -0.60887,-1.32854 -0.90625,-2 l -6.53125,-10.40625 z m -84.781254,6.375 -2.03125,14.78125 29.812504,-0.5 -1,-14.28125 -26.781254,0 z m 27.781254,23.218747 -35.687504,0.25 -2.03125,19.12501 38.500004,-0.53125 -0.78125,-18.84376 z m 39.78125,2.75 -30.09375,2.03125 1.53125,19.87501 31.375,-4.84375 -2.8125,-17.06251 z m -1.03125,31.65626 -35.4375,4.59375 -1.25,18.875 35.9375,-5.125 0.75,-18.34375 z m 21.6875,14.78125 -21.40625,5.625 -2.3125,14.78125 19.375,-6.125 4.34375,-14.28125 z m -0.5,12 -4.84375,4.0625 -2.5625,9.4375 4.34375,-4.0625 3.0625,-9.4375 z"
     style="fill:#930f0f;fill-opacity:0.8627451;fill-rule:evenodd;stroke:none" />
  <path
     id="path3953"
     d="m 77.976626,40.00243 -6.125,8.40625 21.15625,1.78125 3.0625,-8.90625 -18.09375,-1.28125 z m -12,16.812503 -5.59375,13.28125 27.78125,2.28125 2.53125,-13.5 -24.71875,-2.0625 z m 30.34375,12.5 -2.03125,14.78125 29.812504,-0.5 -1,-14.28125 -26.781254,0 z m 15.968754,23.312497 -23.875004,0.15625 -2.03125,19.12501 1.6875,-0.0312 c 1.88841,-1.54506 3.73793,-3.01147 5.6875,-4.68751 6.553404,-5.6339 12.701934,-10.4012 18.531254,-14.5625 z"
     style="fill:url(#linearGradient3015);fill-opacity:0.45210727;fill-rule:evenodd;stroke:none" />
  <path
     id="path4013"
     d="m 176.13288,63.971183 -8.46875,1.78125 c 2.32712,4.04923 4.2993,8.31272 5.9375,12.75 l 9.375,-1.96875 c -1.97922,-4.3813 -4.2297,-8.58129 -6.84375,-12.5625 z m 8.40625,77.750007 -14.75,3.875 c -2.40532,4.752 -5.2425,9.22714 -8.46875,13.40625 l -0.5,3.125 19.375,-6.125 4.34375,-14.28125 z m -3.6875,14.6875 -1.65625,1.375 -0.8125,3 c 0.85118,-1.44143 1.69549,-2.88421 2.46875,-4.375 z"
     style="fill:url(#radialGradient3019);fill-opacity:0.75;fill-rule:evenodd;stroke:none" />
</svg>
